{
  "lang":"vi",
  "name":"core_news_lg",
  "version":"0.0.1",
  "description":"Spacy Vietnamese language model trained on 18 GB of Vietnamese news, 270K unique vectors (300 dimensions)",
  "author":"Viet-Trung Tran",
  "email":"trungtv@soict.hust.edu.vn",
  "url":"https://github.com/trungtv/vi_spacy",
  "license":"MIT",
  "spacy_version":">=3.0.5,<3.1.0",
  "spacy_git_version":"ed561cf42",
  "vectors":{
    "width":300,
    "vectors":203277,
    "keys":203277,
    "name":"vi_pipeline.vectors"
  },
  "labels":{
    "tok2vec":[

    ],
    "tagger":[
      "!",
      "\"",
      ",",
      "-",
      ".",
      "...",
      ":",
      ";",
      "?",
      "@",
      "A",
      "C",
      "CC",
      "E",
      "I",
      "L",
      "LBKT",
      "M",
      "N",
      "NP",
      "Nb",
      "Nc",
      "Np",
      "Nu",
      "Ny",
      "P",
      "R",
      "RBKT",
      "T",
      "V",
      "VP",
      "X",
      "Y",
      "Z"
    ],
    "parser":[
      "ROOT",
      "advcl",
      "advmod",
      "amod",
      "appos",
      "aux",
      "aux:pass",
      "case",
      "cc",
      "ccomp",
      "compound",
      "conj",
      "cop",
      "csubj",
      "dep",
      "det",
      "discourse",
      "iobj",
      "mark",
      "nmod",
      "nsubj",
      "nummod",
      "obj",
      "obl",
      "parataxis",
      "punct",
      "xcomp"
    ]
  },
  "pipeline":[
    "tok2vec",
    "tagger",
    "parser"
  ],
  "components":[
    "tok2vec",
    "tagger",
    "parser"
  ],
  "disabled":[

  ],
  "performance":{
    "dep_las_per_type":{
      "nsubj":{
        "p":0.6982182628,
        "r":0.6837513631,
        "f":0.6909090909
      },
      "compound":{
        "p":0.6220677672,
        "r":0.680608365,
        "f":0.6500226963
      },
      "advmod":{
        "p":0.8082959641,
        "r":0.7719486081,
        "f":0.7897042716
      },
      "root":{
        "p":0.6920289855,
        "r":0.71625,
        "f":0.7039312039
      },
      "conj":{
        "p":0.3977777778,
        "r":0.4344660194,
        "f":0.4153132251
      },
      "xcomp":{
        "p":0.5809739524,
        "r":0.5770528684,
        "f":0.579006772
      },
      "case":{
        "p":0.7414050822,
        "r":0.8144499179,
        "f":0.7762128326
      },
      "mark":{
        "p":0.22,
        "r":0.1929824561,
        "f":0.2056074766
      },
      "obj":{
        "p":0.6364494806,
        "r":0.6346516008,
        "f":0.6355492692
      },
      "cc":{
        "p":0.6205250597,
        "r":0.5936073059,
        "f":0.6067677946
      },
      "nummod":{
        "p":0.7301980198,
        "r":0.8333333333,
        "f":0.7783641161
      },
      "nmod":{
        "p":0.495890411,
        "r":0.4677002584,
        "f":0.4813829787
      },
      "parataxis":{
        "p":0.2111111111,
        "r":0.1652173913,
        "f":0.1853658537
      },
      "ccomp":{
        "p":0.3876404494,
        "r":0.4246153846,
        "f":0.4052863436
      },
      "obl":{
        "p":0.5464480874,
        "r":0.4987531172,
        "f":0.5215123859
      },
      "amod":{
        "p":0.5606936416,
        "r":0.4743276284,
        "f":0.5139072848
      },
      "discourse":{
        "p":0.4461538462,
        "r":0.2989690722,
        "f":0.3580246914
      },
      "det":{
        "p":0.75,
        "r":0.7884187082,
        "f":0.7687296417
      },
      "advcl":{
        "p":0.3539823009,
        "r":0.3278688525,
        "f":0.3404255319
      },
      "aux:pass":{
        "p":0.7604166667,
        "r":0.7019230769,
        "f":0.73
      },
      "cop":{
        "p":0.7635135135,
        "r":0.8560606061,
        "f":0.8071428571
      },
      "csubj":{
        "p":0.375,
        "r":0.1071428571,
        "f":0.1666666667
      },
      "aux":{
        "p":0.6612903226,
        "r":0.7884615385,
        "f":0.7192982456
      },
      "dep":{
        "p":0.1142857143,
        "r":0.0701754386,
        "f":0.0869565217
      },
      "appos":{
        "p":0.5833333333,
        "r":0.2258064516,
        "f":0.3255813953
      },
      "iobj":{
        "p":0.0,
        "r":0.0,
        "f":0.0
      }
    },
    "sents_p":0.9040097205,
    "sents_r":0.93,
    "tag_acc":0.8942170893,
    "dep_uas":0.7110308826,
    "dep_las":0.6303722133,
    "sents_f":0.9168207024,
    "tok2vec_loss":5277.1378412326,
    "tagger_loss":359.2676231772,
    "parser_loss":11970.8626632019
  }
}